sim/waveform.vcd
$version Generated by VerilatedVcd $end
$timescale 1ps $end

 $scope module TOP $end
  $scope module tb_soc $end
   $var wire  1 "# clk $end
   $var wire 32 &# gated_periph_edges [31:0] $end
   $var wire 32 # gpio_in [31:0] $end
   $var wire 32 # gpio_out [31:0] $end
   $var wire 32 %# raw_periph_edges [31:0] $end
   $var wire  1 ## resetn $end
   $var wire 32 ? sim_exit_code [31:0] $end
   $var wire  1 > sim_exit_req $end
   $var wire  1 $# sim_started $end
   $var wire  1 $ timer_done $end
   $var wire  1 N! trap $end
   $scope module dut $end
    $var wire 32 @! PADDR_cpu [31:0] $end
    $var wire 32 % PADDR_periph [31:0] $end
    $var wire  1 B! PENABLE_cpu $end
    $var wire  1 ' PENABLE_periph $end
    $var wire 32 E! PRDATA_cpu [31:0] $end
    $var wire 32 * PRDATA_periph [31:0] $end
    $var wire  1 F! PREADY_cpu $end
    $var wire  1 + PREADY_periph $end
    $var wire  1 A! PSEL_cpu $end
    $var wire  1 & PSEL_periph $end
    $var wire 32 D! PWDATA_cpu [31:0] $end
    $var wire 32 ) PWDATA_periph [31:0] $end
    $var wire  1 C! PWRITE_cpu $end
    $var wire  1 ( PWRITE_periph $end
    $var wire 32 >! apb_bridge_rdata [31:0] $end
    $var wire  1 ?! apb_bridge_ready $end
    $var wire  1 W! apb_bridge_valid $end
    $var wire  1 "# clk $end
    $var wire  1 )# clk_periph $end
    $var wire  1 (# clk_periph_en $end
    $var wire  1 '# clk_periph_raw $end
    $var wire 32 P! cpu_mem_addr [31:0] $end
    $var wire 32 |" cpu_mem_rdata [31:0] $end
    $var wire  1 {" cpu_mem_ready $end
    $var wire  1 O! cpu_mem_valid $end
    $var wire 32 Q! cpu_mem_wdata [31:0] $end
    $var wire  4 R! cpu_mem_wstrb [3:0] $end
    $var wire 32 # gpio_in [31:0] $end
    $var wire 32 # gpio_out [31:0] $end
    $var wire  1 T! is_apb $end
    $var wire  1 S! is_ram $end
    $var wire  1 U! is_sim_exit $end
    $var wire 32 1 prdata_gpio [31:0] $end
    $var wire 32 2 prdata_timer [31:0] $end
    $var wire 32 / prdata_uart [31:0] $end
    $var wire  1 5# pready_gpio $end
    $var wire  1 5# pready_timer $end
    $var wire  1 0 pready_uart $end
    $var wire  1 - psel_gpio $end
    $var wire  1 . psel_timer $end
    $var wire  1 , psel_uart $end
    $var wire 32 @ ram_rdata [31:0] $end
    $var wire  1 A ram_ready $end
    $var wire  1 V! ram_valid $end
    $var wire  1 ## resetn $end
    $var wire 32 ? sim_exit_code [31:0] $end
    $var wire  1 B sim_exit_ready $end
    $var wire  1 > sim_exit_req $end
    $var wire  1 $ timer_done $end
    $var wire  1 N! trap $end
    $scope module apb_cdc $end
     $var wire  2 9# CPU_STATE_CLEAR [1:0] $end
     $var wire  2 8# CPU_STATE_DONE [1:0] $end
     $var wire  2 6# CPU_STATE_IDLE [1:0] $end
     $var wire  2 7# CPU_STATE_WAIT [1:0] $end
     $var wire 32 @! PADDR_cpu [31:0] $end
     $var wire 32 % PADDR_periph [31:0] $end
     $var wire  1 B! PENABLE_cpu $end
     $var wire  1 ' PENABLE_periph $end
     $var wire  2 8# PERIPH_STATE_ACCESS [1:0] $end
     $var wire  2 9# PERIPH_STATE_HOLD [1:0] $end
     $var wire  2 6# PERIPH_STATE_IDLE [1:0] $end
     $var wire  2 7# PERIPH_STATE_SETUP [1:0] $end
     $var wire 32 E! PRDATA_cpu [31:0] $end
     $var wire 32 +# PRDATA_from_periph [31:0] $end
     $var wire 32 * PRDATA_periph [31:0] $end
     $var wire  1 F! PREADY_cpu $end
     $var wire  1 + PREADY_periph $end
     $var wire  1 A! PSEL_cpu $end
     $var wire  1 & PSEL_periph $end
     $var wire 32 D! PWDATA_cpu [31:0] $end
     $var wire 32 ) PWDATA_periph [31:0] $end
     $var wire  1 C! PWRITE_cpu $end
     $var wire  1 ( PWRITE_periph $end
     $var wire  1 X! ack_cpu_sync $end
     $var wire  1 *# ack_periph $end
     $var wire 32 I! addr_hold [31:0] $end
     $var wire  1 "# clk_cpu $end
     $var wire  1 )# clk_periph $end
     $var wire  1 (# clk_periph_en $end
     $var wire  2 G! cpu_state [1:0] $end
     $var wire  2 3 periph_state [1:0] $end
     $var wire 32 L! rdata_hold [31:0] $end
     $var wire  1 H! req_cpu $end
     $var wire  1 ,# req_periph_sync $end
     $var wire  1 ## rst_n_cpu $end
     $var wire  1 ## rst_n_periph $end
     $var wire 32 J! wdata_hold [31:0] $end
     $var wire  1 K! write_hold $end
     $scope module sync_ack $end
      $var wire  1 *# async_in $end
      $var wire  1 "# clk $end
      $var wire  1 Y! sync_ff1 $end
      $var wire  1 X! sync_out $end
     $upscope $end
     $scope module sync_req $end
      $var wire  1 H! async_in $end
      $var wire  1 )# clk $end
      $var wire  1 -# sync_ff1 $end
      $var wire  1 ,# sync_out $end
     $upscope $end
    $upscope $end
    $scope module apb_master $end
     $var wire 32 @! PADDR [31:0] $end
     $var wire  1 B! PENABLE $end
     $var wire 32 E! PRDATA [31:0] $end
     $var wire  1 F! PREADY $end
     $var wire  1 A! PSEL $end
     $var wire 32 D! PWDATA [31:0] $end
     $var wire  1 C! PWRITE $end
     $var wire  2 8# STATE_ACCESS [1:0] $end
     $var wire  2 6# STATE_IDLE [1:0] $end
     $var wire  2 7# STATE_SETUP [1:0] $end
     $var wire  1 "# clk $end
     $var wire 32 P! mem_addr [31:0] $end
     $var wire 32 >! mem_rdata [31:0] $end
     $var wire  1 ?! mem_ready $end
     $var wire  1 W! mem_valid $end
     $var wire 32 Q! mem_wdata [31:0] $end
     $var wire  4 R! mem_wstrb [3:0] $end
     $var wire  1 ## rst_n $end
     $var wire  2 M! state [1:0] $end
    $upscope $end
    $scope module cpu $end
     $var wire  1 ;# BARREL_SHIFTER [0:0] $end
     $var wire  1 ;# CATCH_ILLINSN [0:0] $end
     $var wire  1 ;# CATCH_MISALIGN [0:0] $end
     $var wire  1 :# COMPRESSED_ISA [0:0] $end
     $var wire  1 :# ENABLE_COUNTERS [0:0] $end
     $var wire  1 :# ENABLE_COUNTERS64 [0:0] $end
     $var wire  1 :# ENABLE_DIV [0:0] $end
     $var wire  1 :# ENABLE_FAST_MUL [0:0] $end
     $var wire  1 :# ENABLE_IRQ [0:0] $end
     $var wire  1 ;# ENABLE_IRQ_QREGS [0:0] $end
     $var wire  1 ;# ENABLE_IRQ_TIMER [0:0] $end
     $var wire  1 :# ENABLE_MUL [0:0] $end
     $var wire  1 :# ENABLE_PCPI [0:0] $end
     $var wire  1 ;# ENABLE_REGS_16_31 [0:0] $end
     $var wire  1 ;# ENABLE_REGS_DUALPORT [0:0] $end
     $var wire  1 :# ENABLE_TRACE [0:0] $end
     $var wire 32 =# LATCHED_IRQ [31:0] $end
     $var wire  1 :# LATCHED_MEM_RDATA [0:0] $end
     $var wire 32 <# MASKED_IRQ [31:0] $end
     $var wire 32 ># PROGADDR_IRQ [31:0] $end
     $var wire 32 <# PROGADDR_RESET [31:0] $end
     $var wire  1 :# REGS_INIT_ZERO [0:0] $end
     $var wire 32 =# STACKADDR [31:0] $end
     $var wire 36 K# TRACE_ADDR [35:0] $end
     $var wire 36 I# TRACE_BRANCH [35:0] $end
     $var wire 36 M# TRACE_IRQ [35:0] $end
     $var wire  1 :# TWO_CYCLE_ALU [0:0] $end
     $var wire  1 :# TWO_CYCLE_COMPARE [0:0] $end
     $var wire  1 ;# TWO_STAGE_SHIFT [0:0] $end
     $var wire  1 :# WITH_PCPI [0:0] $end
     $var wire 32 p" alu_add_sub [31:0] $end
     $var wire  1 s" alu_eq $end
     $var wire  1 u" alu_lts $end
     $var wire  1 t" alu_ltu $end
     $var wire 32 m" alu_out [31:0] $end
     $var wire  1 o" alu_out_0 $end
     $var wire  1 :! alu_out_0_q $end
     $var wire 32 n" alu_out_q [31:0] $end
     $var wire 32 q" alu_shl [31:0] $end
     $var wire 32 r" alu_shr [31:0] $end
     $var wire  1 ;! alu_wait $end
     $var wire  1 <! alu_wait_2 $end
     $var wire 64 /! cached_ascii_instr [63:0] $end
     $var wire 32 1! cached_insn_imm [31:0] $end
     $var wire 32 2! cached_insn_opcode [31:0] $end
     $var wire  5 5! cached_insn_rd [4:0] $end
     $var wire  5 3! cached_insn_rs1 [4:0] $end
     $var wire  5 4! cached_insn_rs2 [4:0] $end
     $var wire  1 0# clear_prefetched_high_word $end
     $var wire  1 =! clear_prefetched_high_word_q $end
     $var wire  1 "# clk $end
     $var wire  1 8" compressed_instr $end
     $var wire 64 I count_cycle [63:0] $end
     $var wire 64 K count_instr [63:0] $end
     $var wire  8 [" cpu_state [7:0] $end
     $var wire  8 V# cpu_state_exec [7:0] $end
     $var wire  8 S# cpu_state_fetch [7:0] $end
     $var wire  8 T# cpu_state_ld_rs1 [7:0] $end
     $var wire  8 U# cpu_state_ld_rs2 [7:0] $end
     $var wire  8 Y# cpu_state_ldmem [7:0] $end
     $var wire  8 W# cpu_state_shift [7:0] $end
     $var wire  8 X# cpu_state_stmem [7:0] $end
     $var wire  8 R# cpu_state_trap [7:0] $end
     $var wire 32 R cpuregs[0] [31:0] $end
     $var wire 32 \ cpuregs[10] [31:0] $end
     $var wire 32 ] cpuregs[11] [31:0] $end
     $var wire 32 ^ cpuregs[12] [31:0] $end
     $var wire 32 _ cpuregs[13] [31:0] $end
     $var wire 32 ` cpuregs[14] [31:0] $end
     $var wire 32 a cpuregs[15] [31:0] $end
     $var wire 32 b cpuregs[16] [31:0] $end
     $var wire 32 c cpuregs[17] [31:0] $end
     $var wire 32 d cpuregs[18] [31:0] $end
     $var wire 32 e cpuregs[19] [31:0] $end
     $var wire 32 S cpuregs[1] [31:0] $end
     $var wire 32 f cpuregs[20] [31:0] $end
     $var wire 32 g cpuregs[21] [31:0] $end
     $var wire 32 h cpuregs[22] [31:0] $end
     $var wire 32 i cpuregs[23] [31:0] $end
     $var wire 32 j cpuregs[24] [31:0] $end
     $var wire 32 k cpuregs[25] [31:0] $end
     $var wire 32 l cpuregs[26] [31:0] $end
     $var wire 32 m cpuregs[27] [31:0] $end
     $var wire 32 n cpuregs[28] [31:0] $end
     $var wire 32 o cpuregs[29] [31:0] $end
     $var wire 32 T cpuregs[2] [31:0] $end
     $var wire 32 p cpuregs[30] [31:0] $end
     $var wire 32 q cpuregs[31] [31:0] $end
     $var wire 32 U cpuregs[3] [31:0] $end
     $var wire 32 V cpuregs[4] [31:0] $end
     $var wire 32 W cpuregs[5] [31:0] $end
     $var wire 32 X cpuregs[6] [31:0] $end
     $var wire 32 Y cpuregs[7] [31:0] $end
     $var wire 32 Z cpuregs[8] [31:0] $end
     $var wire 32 [ cpuregs[9] [31:0] $end
     $var wire 32 x" cpuregs_rs1 [31:0] $end
     $var wire 32 y" cpuregs_rs2 [31:0] $end
     $var wire 32 w" cpuregs_wrdata [31:0] $end
     $var wire  1 v" cpuregs_write $end
     $var wire 32 k" current_pc [31:0] $end
     $var wire 64 Q" dbg_ascii_instr [63:0] $end
     $var wire 128 \" dbg_ascii_state [127:0] $end
     $var wire 32 O dbg_insn_addr [31:0] $end
     $var wire 32 S" dbg_insn_imm [31:0] $end
     $var wire 32 N dbg_insn_opcode [31:0] $end
     $var wire  5 U" dbg_insn_rd [4:0] $end
     $var wire  5 %! dbg_insn_rs1 [4:0] $end
     $var wire  5 T" dbg_insn_rs2 [4:0] $end
     $var wire 32 P! dbg_mem_addr [31:0] $end
     $var wire  1 Z! dbg_mem_instr $end
     $var wire 32 |" dbg_mem_rdata [31:0] $end
     $var wire  1 {" dbg_mem_ready $end
     $var wire  1 O! dbg_mem_valid $end
     $var wire 32 Q! dbg_mem_wdata [31:0] $end
     $var wire  4 R! dbg_mem_wstrb [3:0] $end
     $var wire  1 -! dbg_next $end
     $var wire 32 V" dbg_rs1val [31:0] $end
     $var wire  1 X" dbg_rs1val_valid $end
     $var wire 32 W" dbg_rs2val [31:0] $end
     $var wire  1 Y" dbg_rs2val_valid $end
     $var wire  1 .! dbg_valid_insn $end
     $var wire 32 <" decoded_imm [31:0] $end
     $var wire 32 =" decoded_imm_j [31:0] $end
     $var wire  5 :" decoded_rd [4:0] $end
     $var wire  5 [# decoded_rs [4:0] $end
     $var wire  5 "! decoded_rs1 [4:0] $end
     $var wire  5 ;" decoded_rs2 [4:0] $end
     $var wire  1 @" decoder_pseudo_trigger $end
     $var wire  1 #! decoder_pseudo_trigger_q $end
     $var wire  1 >" decoder_trigger $end
     $var wire  1 ?" decoder_trigger_q $end
     $var wire  1 l" do_waitirq $end
     $var wire 32 E eoi [31:0] $end
     $var wire 32 O# i [31:0] $end
     $var wire  1 ." instr_add $end
     $var wire  1 %" instr_addi $end
     $var wire  1 7" instr_and $end
     $var wire  1 *" instr_andi $end
     $var wire  1 r! instr_auipc $end
     $var wire  1 u! instr_beq $end
     $var wire  1 x! instr_bge $end
     $var wire  1 z! instr_bgeu $end
     $var wire  1 w! instr_blt $end
     $var wire  1 y! instr_bltu $end
     $var wire  1 v! instr_bne $end
     $var wire  1 y instr_ecall_ebreak $end
     $var wire  1 z instr_fence $end
     $var wire  1 { instr_getq $end
     $var wire  1 s! instr_jal $end
     $var wire  1 t! instr_jalr $end
     $var wire  1 {! instr_lb $end
     $var wire  1 ~! instr_lbu $end
     $var wire  1 |! instr_lh $end
     $var wire  1 !" instr_lhu $end
     $var wire  1 q! instr_lui $end
     $var wire  1 }! instr_lw $end
     $var wire  1 } instr_maskirq $end
     $var wire  1 6" instr_or $end
     $var wire  1 )" instr_ori $end
     $var wire  1 u instr_rdcycle $end
     $var wire  1 v instr_rdcycleh $end
     $var wire  1 w instr_rdinstr $end
     $var wire  1 x instr_rdinstrh $end
     $var wire  1 8" instr_retirq $end
     $var wire  1 "" instr_sb $end
     $var wire  1 | instr_setq $end
     $var wire  1 #" instr_sh $end
     $var wire  1 0" instr_sll $end
     $var wire  1 +" instr_slli $end
     $var wire  1 1" instr_slt $end
     $var wire  1 &" instr_slti $end
     $var wire  1 '" instr_sltiu $end
     $var wire  1 2" instr_sltu $end
     $var wire  1 5" instr_sra $end
     $var wire  1 -" instr_srai $end
     $var wire  1 4" instr_srl $end
     $var wire  1 ," instr_srli $end
     $var wire  1 /" instr_sub $end
     $var wire  1 $" instr_sw $end
     $var wire  1 !! instr_timer $end
     $var wire  1 9" instr_trap $end
     $var wire  1 ~ instr_waitirq $end
     $var wire  1 3" instr_xor $end
     $var wire  1 (" instr_xori $end
     $var wire 32 C# irq [31:0] $end
     $var wire  1 f! irq_active $end
     $var wire 32 F# irq_buserror [31:0] $end
     $var wire  1 e! irq_delay $end
     $var wire 32 E# irq_ebreak [31:0] $end
     $var wire 32 P irq_mask [31:0] $end
     $var wire 32 Q irq_pending [31:0] $end
     $var wire  2 6! irq_state [1:0] $end
     $var wire 32 D# irq_timer [31:0] $end
     $var wire 32 G# irqregs_offset [31:0] $end
     $var wire  1 L" is_alu_reg_imm $end
     $var wire  1 M" is_alu_reg_reg $end
     $var wire  1 J" is_beq_bne_blt_bge_bltu_bgeu $end
     $var wire  1 N" is_compare $end
     $var wire  1 D" is_jalr_addi_slti_sltiu_xori_ori_andi $end
     $var wire  1 B" is_lb_lh_lw_lbu_lhu $end
     $var wire  1 K" is_lbu_lhu_lw $end
     $var wire  1 A" is_lui_auipc_jal $end
     $var wire  1 G" is_lui_auipc_jal_jalr_addi_add_sub $end
     $var wire  1 $! is_rdcycle_rdcycleh_rdinstr_rdinstrh $end
     $var wire  1 E" is_sb_sh_sw $end
     $var wire  1 F" is_sll_srl_sra $end
     $var wire  1 C" is_slli_srli_srai $end
     $var wire  1 H" is_slti_blt_slt $end
     $var wire  1 I" is_sltiu_bltu_sltu $end
     $var wire  1 s last_mem_valid $end
     $var wire  1 e" latched_branch $end
     $var wire  1 f" latched_compr $end
     $var wire  1 i" latched_is_lb $end
     $var wire  1 h" latched_is_lh $end
     $var wire  1 g" latched_is_lu $end
     $var wire  5 j" latched_rd [4:0] $end
     $var wire  1 d" latched_stalu $end
     $var wire  1 c" latched_store $end
     $var wire  1 7! latched_trace $end
     $var wire  1 Z" launch_next_insn $end
     $var wire 16 Q# mem_16bit_buffer [15:0] $end
     $var wire 32 P! mem_addr [31:0] $end
     $var wire  1 p! mem_busy $end
     $var wire  1 k! mem_do_prefetch $end
     $var wire  1 m! mem_do_rdata $end
     $var wire  1 l! mem_do_rinst $end
     $var wire  1 n! mem_do_wdata $end
     $var wire  1 1# mem_done $end
     $var wire  1 Z! mem_instr $end
     $var wire 32 [! mem_la_addr [31:0] $end
     $var wire  1 P# mem_la_firstword $end
     $var wire  1 r mem_la_firstword_reg $end
     $var wire  1 P# mem_la_firstword_xfer $end
     $var wire  1 .# mem_la_read $end
     $var wire  1 o! mem_la_secondword $end
     $var wire  1 P# mem_la_use_prefetched_high_word $end
     $var wire 32 \! mem_la_wdata [31:0] $end
     $var wire  1 /# mem_la_write $end
     $var wire  4 ]! mem_la_wstrb [3:0] $end
     $var wire 32 |" mem_rdata [31:0] $end
     $var wire 32 !# mem_rdata_latched [31:0] $end
     $var wire 32 !# mem_rdata_latched_noshuffle [31:0] $end
     $var wire 32 j! mem_rdata_q [31:0] $end
     $var wire 32 }" mem_rdata_word [31:0] $end
     $var wire  1 {" mem_ready $end
     $var wire  2 h! mem_state [1:0] $end
     $var wire  1 O! mem_valid $end
     $var wire 32 Q! mem_wdata [31:0] $end
     $var wire  2 i! mem_wordsize [1:0] $end
     $var wire  4 R! mem_wstrb [3:0] $end
     $var wire  1 ~" mem_xfer $end
     $var wire 64 O" new_ascii_instr [63:0] $end
     $var wire 32 M next_insn_opcode [31:0] $end
     $var wire 32 9! next_irq_pending [31:0] $end
     $var wire 32 d! next_pc [31:0] $end
     $var wire 32 <# pcpi_div_rd [31:0] $end
     $var wire  1 P# pcpi_div_ready $end
     $var wire  1 P# pcpi_div_wait $end
     $var wire  1 P# pcpi_div_wr $end
     $var wire 32 D pcpi_insn [31:0] $end
     $var wire 32 <# pcpi_int_rd [31:0] $end
     $var wire  1 P# pcpi_int_ready $end
     $var wire  1 P# pcpi_int_wait $end
     $var wire  1 P# pcpi_int_wr $end
     $var wire 32 <# pcpi_mul_rd [31:0] $end
     $var wire  1 P# pcpi_mul_ready $end
     $var wire  1 P# pcpi_mul_wait $end
     $var wire  1 P# pcpi_mul_wr $end
     $var wire 32 @# pcpi_rd [31:0] $end
     $var wire  1 B# pcpi_ready $end
     $var wire 32 ^! pcpi_rs1 [31:0] $end
     $var wire 32 _! pcpi_rs2 [31:0] $end
     $var wire  1 8! pcpi_timeout $end
     $var wire  4 Z# pcpi_timeout_counter [3:0] $end
     $var wire  1 C pcpi_valid $end
     $var wire  1 A# pcpi_wait $end
     $var wire  1 ?# pcpi_wr $end
     $var wire  1 t prefetched_high_word $end
     $var wire 64 &! q_ascii_instr [63:0] $end
     $var wire 32 (! q_insn_imm [31:0] $end
     $var wire 32 )! q_insn_opcode [31:0] $end
     $var wire  5 ,! q_insn_rd [4:0] $end
     $var wire  5 *! q_insn_rs1 [4:0] $end
     $var wire  5 +! q_insn_rs2 [4:0] $end
     $var wire 32 a! reg_next_pc [31:0] $end
     $var wire 32 ^! reg_op1 [31:0] $end
     $var wire 32 _! reg_op2 [31:0] $end
     $var wire 32 b! reg_out [31:0] $end
     $var wire 32 `! reg_pc [31:0] $end
     $var wire  5 c! reg_sh [4:0] $end
     $var wire 32 G# regfile_size [31:0] $end
     $var wire 32 H# regindex_bits [31:0] $end
     $var wire  1 ## resetn $end
     $var wire  1 a" set_mem_do_rdata $end
     $var wire  1 `" set_mem_do_rinst $end
     $var wire  1 b" set_mem_do_wdata $end
     $var wire 32 g! timer [31:0] $end
     $var wire 36 G trace_data [35:0] $end
     $var wire  1 F trace_valid $end
     $var wire  1 N! trap $end
    $upscope $end
    $scope module gpio_peripheral $end
     $var wire  8 4 PADDR [7:0] $end
     $var wire  1 )# PCLK $end
     $var wire  1 ' PENABLE $end
     $var wire 32 1 PRDATA [31:0] $end
     $var wire  1 5# PREADY $end
     $var wire  1 ## PRESETn $end
     $var wire  1 - PSEL $end
     $var wire 32 ) PWDATA [31:0] $end
     $var wire  1 ( PWRITE $end
     $var wire 32 # gpio_in [31:0] $end
     $var wire 32 # gpio_out [31:0] $end
    $upscope $end
    $scope module periph_clk_div $end
     $var wire  1 "# clk_in $end
     $var wire  1 '# clk_out $end
     $var wire  2 3# counter [1:0] $end
     $var wire  1 2# rst $end
    $upscope $end
    $scope module periph_icg $end
     $var wire  1 '# clk_in $end
     $var wire  1 )# clk_out $end
     $var wire  1 (# en $end
     $var wire  1 4# en_latch $end
    $upscope $end
    $scope module ram $end
     $var wire 32 \# MEM_SIZE [31:0] $end
     $var wire 32 ]# WORDS [31:0] $end
     $var wire 32 P! addr [31:0] $end
     $var wire  1 "# clk $end
     $var wire 32 @ rdata [31:0] $end
     $var wire  1 A ready $end
     $var wire  1 ## rst_n $end
     $var wire  1 V! valid $end
     $var wire 32 Q! wdata [31:0] $end
     $var wire 32 z" word_idx [31:0] $end
     $var wire  4 R! wstrb [3:0] $end
    $upscope $end
    $scope module timer_peripheral $end
     $var wire  8 4 PADDR [7:0] $end
     $var wire  1 )# PCLK $end
     $var wire  1 ' PENABLE $end
     $var wire 32 2 PRDATA [31:0] $end
     $var wire  1 5# PREADY $end
     $var wire  1 ## PRESETn $end
     $var wire  1 . PSEL $end
     $var wire 32 ) PWDATA [31:0] $end
     $var wire  1 ( PWRITE $end
     $var wire 32 ^# WIDTH [31:0] $end
     $var wire 32 6 count [31:0] $end
     $var wire 32 5 load_val [31:0] $end
     $var wire  1 7 running $end
     $var wire  1 $ timer_done $end
    $upscope $end
    $scope module uart_peripheral $end
     $var wire 32 % PADDR [31:0] $end
     $var wire  1 ' PENABLE $end
     $var wire 32 / PRDATA [31:0] $end
     $var wire  1 0 PREADY $end
     $var wire  1 , PSEL $end
     $var wire 32 ) PWDATA [31:0] $end
     $var wire  1 ( PWRITE $end
     $var wire  1 )# clk $end
     $var wire  1 ## rst_n $end
     $var wire  8 : rx_data [7:0] $end
     $var wire  1 ; rx_ready $end
     $var wire  1 < tx_busy $end
     $var wire  8 8 tx_data [7:0] $end
     $var wire  1 9 tx_write $end
     $scope module uart_inst $end
      $var wire  1 )# clk $end
      $var wire  1 ## rst_n $end
      $var wire  8 : rx_data [7:0] $end
      $var wire  1 ; rx_ready $end
      $var wire  1 < tx_busy $end
      $var wire  8 8 tx_data [7:0] $end
      $var wire  8 = tx_reg [7:0] $end
      $var wire  1 9 tx_write $end
     $upscope $end
    $upscope $end
   $upscope $end
  $upscope $end
 $upscope $end
$enddefinitions $end


#0
b00000000000000000000000000000000 #
0$
b00000000000000000000000000000000 %
0&
0'
0(
b00000000000000000000000000000000 )
b00000000000000000000000000000000 *
1+
0,
0-
0.
b00000000000000000000000000000000 /
00
b00000000000000000000000000000000 1
b00000000000000000000000000000000 2
b00 3
b00000000 4
b00000000000000000000000000000000 5
b00000000000000000000000000000000 6
07
b00000000 8
09
b00000000 :
0;
0<
b00000000 =
0>
b00000000000000000000000000000000 ?
b00000000000000000000000000000000 @
0A
0B
0C
b00000000000000000000000000000000 D
b00000000000000000000000000000000 E
0F
b000000000000000000000000000000000000 G
b0000000000000000000000000000000000000000000000000000000000000000 I
b0000000000000000000000000000000000000000000000000000000000000000 K
b00000000000000000000000000000000 M
b00000000000000000000000000000000 N
b00000000000000000000000000000000 O
b00000000000000000000000000000000 P
b00000000000000000000000000000000 Q
b00000000000000000000000000000000 R
b00000000000000000000000000000000 S
b00000000000000000000000000000000 T
b00000000000000000000000000000000 U
b00000000000000000000000000000000 V
b00000000000000000000000000000000 W
b00000000000000000000000000000000 X
b00000000000000000000000000000000 Y
b00000000000000000000000000000000 Z
b00000000000000000000000000000000 [
b00000000000000000000000000000000 \
b00000000000000000000000000000000 ]
b00000000000000000000000000000000 ^
b00000000000000000000000000000000 _
b00000000000000000000000000000000 `
b00000000000000000000000000000000 a
b00000000000000000000000000000000 b
b00000000000000000000000000000000 c
b00000000000000000000000000000000 d
b00000000000000000000000000000000 e
b00000000000000000000000000000000 f
b00000000000000000000000000000000 g
b00000000000000000000000000000000 h
b00000000000000000000000000000000 i
b00000000000000000000000000000000 j
b00000000000000000000000000000000 k
b00000000000000000000000000000000 l
b00000000000000000000000000000000 m
b00000000000000000000000000000000 n
b00000000000000000000000000000000 o
b00000000000000000000000000000000 p
b00000000000000000000000000000000 q
0r
0s
0t
0u
0v
0w
0x
0y
0z
0{
0|
0}
0~
0!!
b00000 "!
0#!
0$!
b00000 %!
b0000000000000000000000000000000000000000000000000000000000000000 &!
b00000000000000000000000000000000 (!
b00000000000000000000000000000000 )!
b00000 *!
b00000 +!
b00000 ,!
0-!
0.!
b0000000000000000000000000000000000000000000000000000000000000000 /!
b00000000000000000000000000000000 1!
b00000000000000000000000000000000 2!
b00000 3!
b00000 4!
b00000 5!
b00 6!
07!
08!
b00000000000000000000000000000000 9!
0:!
0;!
0<!
0=!
b00000000000000000000000000000000 >!
0?!
b00000000000000000000000000000000 @!
0A!
0B!
0C!
b00000000000000000000000000000000 D!
b00000000000000000000000000000000 E!
0F!
b00 G!
0H!
b00000000000000000000000000000000 I!
b00000000000000000000000000000000 J!
0K!
b00000000000000000000000000000000 L!
b00 M!
0N!
0O!
b00000000000000000000000000000000 P!
b00000000000000000000000000000000 Q!
b0000 R!
1S!
0T!
0U!
0V!
0W!
0X!
0Y!
0Z!
b00000000000000000000000000000000 [!
b00000000000000000000000000000000 \!
b1111 ]!
b00000000000000000000000000000000 ^!
b00000000000000000000000000000000 _!
b00000000000000000000000000000000 `!
b00000000000000000000000000000000 a!
b00000000000000000000000000000000 b!
b00000 c!
b00000000000000000000000000000000 d!
0e!
0f!
b00000000000000000000000000000000 g!
b00 h!
b00 i!
b00000000000000000000000000000000 j!
0k!
0l!
0m!
0n!
0o!
0p!
0q!
0r!
0s!
0t!
0u!
0v!
0w!
0x!
0y!
0z!
0{!
0|!
0}!
0~!
0!"
0""
0#"
0$"
0%"
0&"
0'"
0("
0)"
0*"
0+"
0,"
0-"
0."
0/"
00"
01"
02"
03"
04"
05"
06"
07"
08"
19"
b00000 :"
b00000 ;"
b00000000000000000000000000000000 <"
b00000000000000000000000000000000 ="
0>"
0?"
0@"
0A"
0B"
0C"
0D"
0E"
0F"
0G"
0H"
0I"
0J"
0K"
0L"
0M"
0N"
b0000000000000000000000000000000000000000000000000000000000000000 O"
b0000000000000000000000000000000000000000000000000000000000000000 Q"
b00000000000000000000000000000000 S"
b00000 T"
b00000 U"
b00000000000000000000000000000000 V"
b00000000000000000000000000000000 W"
0X"
0Y"
0Z"
b00000000 ["
b00000000000000000000000000000000000000000000000000000000000000000000000000000000000000000000000000000000000000000000000000000000 \"
0`"
0a"
0b"
0c"
0d"
0e"
0f"
0g"
0h"
0i"
b00000 j"
b00000000000000000000000000000000 k"
0l"
b00000000000000000000000000000000 m"
b00000000000000000000000000000000 n"
0o"
b00000000000000000000000000000000 p"
b00000000000000000000000000000000 q"
b00000000000000000000000000000000 r"
1s"
0t"
0u"
0v"
b00000000000000000000000000000000 w"
b00000000000000000000000000000000 x"
b00000000000000000000000000000000 y"
b00000000000000000000000000000000 z"
0{"
b00000000000000000000000000000000 |"
b00000000000000000000000000000000 }"
0~"
b00000000000000000000000000000000 !#
0"#
0##
0$#
b00000000000000000000000000000000 %#
b00000000000000000000000000000000 &#
0'#
0(#
0)#
0*#
b00000000000000000000000000000000 +#
0,#
0-#
0.#
0/#
00#
01#
12#
b00 3#
04#
15#
b00 6#
b01 7#
b10 8#
b11 9#
0:#
1;#
b00000000000000000000000000000000 <#
b11111111111111111111111111111111 =#
b00000000000000000000000000010000 >#
0?#
b00000000000000000000000000000000 @#
0A#
0B#
b00000000000000000000000000000000 C#
b00000000000000000000000000000000 D#
b00000000000000000000000000000001 E#
b00000000000000000000000000000010 F#
b00000000000000000000000000100000 G#
b00000000000000000000000000000101 H#
b000100000000000000000000000000000000 I#
b001000000000000000000000000000000000 K#
b100000000000000000000000000000000000 M#
b00000000000000000000000000000000 O#
0P#
b0000000000000000 Q#
b10000000 R#
b01000000 S#
b00100000 T#
b00010000 U#
b00001000 V#
b00000100 W#
b00000010 X#
b00000001 Y#
b0000 Z#
b00000 [#
b00000000000000000100000000000000 \#
b00000000000000000001000000000000 ]#
b00000000000000000000000000100000 ^#
#10000
b11111111111111111111111111111111 P
b01000000 ["
b00000000000000000000000000000000000000000000000000000000000000000000000000000000000000000110011001100101011101000110001101101000 \"
1"#
#20000
0"#
#30000
1"#
#40000
0"#
#50000
1"#
#60000
0"#
#70000
1"#
#80000
0"#
#90000
1"#
#100000
0"#
1##
02#
#110000
1l!
1p!
1"#
1.#
b01 3#
#120000
0"#
1$#
#130000
1O!
1V!
1Z!
b01 h!
1"#
b00000000000000000000000000000001 %#
1'#
0.#
b10 3#
#140000
0"#
#150000
b00000000000000000100000100110111 @
1A
1s
1{"
b00000000000000000100000100110111 |"
b00000000000000000100000100110111 }"
1~"
b00000000000000000100000100110111 !#
1"#
11#
b11 3#
#160000
0"#
#170000
0A
b00000000000000000100000100110111 M
0s
0O!
0V!
b00 h!
b00000000000000000100000100110111 j!
0l!
0p!
1q!
09"
b00010 :"
b00000000000000000100000000000000 ="
1>"
b0000000000000000000000000000000000000000011011000111010101101001 O"
1Z"
0{"
b00000000000000000000000000000000 |"
b00000000000000000000000000000000 }"
0~"
1"#
0'#
01#
b00 3#
#180000
0"#
